simulation/qsim/spi_slave.msim.vcd
$comment
	File created using the following command:
		vcd file spi_slave.msim.vcd -direction
$end
$date
	Mon Feb 04 21:02:30 2019
$end
$version
	ModelSim Version 10.3d
$end
$timescale
	1ps
$end

$scope module spi_slave_vlg_vec_tst $end
$var reg 1 ! cs_n $end
$var reg 1 " mosi $end
$var reg 1 # ref_clk $end
$var reg 1 $ reset_n $end
$var reg 1 % spi_clk $end
$var reg 8 & tx_data [7:0] $end
$var wire 1 ' miso $end
$var wire 1 ( rx_data [7] $end
$var wire 1 ) rx_data [6] $end
$var wire 1 * rx_data [5] $end
$var wire 1 + rx_data [4] $end
$var wire 1 , rx_data [3] $end
$var wire 1 - rx_data [2] $end
$var wire 1 . rx_data [1] $end
$var wire 1 / rx_data [0] $end
$var wire 1 0 rx_valid $end
$var wire 1 1 sampler $end

$scope module i1 $end
$var wire 1 2 gnd $end
$var wire 1 3 vcc $end
$var wire 1 4 unknown $end
$var tri1 1 5 devclrn $end
$var tri1 1 6 devpor $end
$var tri1 1 7 devoe $end
$var wire 1 8 tx_data[0]~input_o $end
$var wire 1 9 tx_data[1]~input_o $end
$var wire 1 : tx_data[2]~input_o $end
$var wire 1 ; tx_data[3]~input_o $end
$var wire 1 < tx_data[4]~input_o $end
$var wire 1 = tx_data[5]~input_o $end
$var wire 1 > tx_data[6]~input_o $end
$var wire 1 ? tx_data[7]~input_o $end
$var wire 1 @ miso~output_o $end
$var wire 1 A rx_data[0]~output_o $end
$var wire 1 B rx_data[1]~output_o $end
$var wire 1 C rx_data[2]~output_o $end
$var wire 1 D rx_data[3]~output_o $end
$var wire 1 E rx_data[4]~output_o $end
$var wire 1 F rx_data[5]~output_o $end
$var wire 1 G rx_data[6]~output_o $end
$var wire 1 H rx_data[7]~output_o $end
$var wire 1 I rx_valid~output_o $end
$var wire 1 J ref_clk~input_o $end
$var wire 1 K spi_clk~input_o $end
$var wire 1 L reset_n~input_o $end
$var wire 1 M spi_clk_latched~q $end
$var wire 1 N mosi~input_o $end
$var wire 1 O mosi_latched~q $end
$var wire 1 P cs_n~input_o $end
$var wire 1 Q cs_n_latched~0_combout $end
$var wire 1 R cs_n_latched~q $end
$var wire 1 S process_1~0_combout $end
$var wire 1 T rx_data[0]~reg0_q $end
$var wire 1 U rx_data[1]~reg0_q $end
$var wire 1 V rx_data[2]~reg0_q $end
$var wire 1 W rx_data[3]~reg0_q $end
$var wire 1 X rx_data[4]~reg0_q $end
$var wire 1 Y rx_data[5]~reg0_q $end
$var wire 1 Z rx_data[6]~reg0_q $end
$var wire 1 [ rx_data[7]~reg0_q $end
$var wire 1 \ spi_clk_counter[0]~2_combout $end
$var wire 1 ] spi_clk_counter[1]~1_combout $end
$var wire 1 ^ spi_clk_counter[2]~0_combout $end
$var wire 1 _ Equal0~0_combout $end
$var wire 1 ` rx_valid~reg0_q $end
$var wire 1 a spi_clk_counter [2] $end
$var wire 1 b spi_clk_counter [1] $end
$var wire 1 c spi_clk_counter [0] $end
$upscope $end
$upscope $end
$enddefinitions $end
#0
$dumpvars
1!
0"
0#
1$
0%
b0 &
0'
0/
0.
0-
0,
0+
0*
0)
0(
00
x1
02
13
x4
15
16
17
08
09
0:
0;
0<
0=
0>
0?
0@
0A
0B
0C
0D
0E
0F
0G
0H
0I
0J
0K
1L
0M
0N
0O
1P
0Q
0R
1S
0T
0U
0V
0W
0X
0Y
0Z
0[
1\
0]
0^
1_
0`
0c
0b
0a
$end
#2000
1#
01
1J
#4000
0#
11
0J
#6000
1#
01
1J
#8000
0#
11
0J
#10000
0!
1#
0P
01
1J
1Q
#12000
0#
11
0J
#14000
1#
01
1J
1R
0S
#16000
0#
11
0J
#18000
1#
01
1J
#20000
1%
0#
11
1K
0J
#22000
1#
01
1J
1M
1c
0_
1]
0\
#24000
0#
11
0J
#26000
1#
01
1J
#28000
0#
11
0J
#30000
1"
1#
01
1N
1J
1O
#32000
0#
11
0J
#34000
1#
01
1J
#36000
0#
11
0J
#38000
1#
01
1J
#40000
0%
0#
11
0K
0J
#42000
1#
01
1J
0M
#44000
0#
11
0J
#46000
1#
01
1J
#48000
0#
11
0J
#50000
1#
01
1J
#52000
0#
11
0J
#54000
1#
01
1J
#56000
0#
11
0J
#58000
1#
01
1J
#60000
1%
0#
11
1K
0J
#62000
1#
01
1J
1M
1b
0c
1T
1A
1/
1\
#64000
0#
11
0J
#66000
1#
01
1J
#68000
0#
11
0J
#70000
1#
01
1J
#72000
0#
11
0J
#74000
1#
01
1J
#76000
0#
11
0J
#78000
1#
01
1J
#80000
0%
0#
11
0K
0J
#82000
1#
01
1J
0M
#84000
0#
11
0J
#86000
1#
01
1J
#88000
0#
11
0J
#90000
1#
01
1J
#92000
0#
11
0J
#94000
1#
01
1J
#96000
0#
11
0J
#98000
1#
01
1J
#100000
1%
0#
11
1K
0J
#102000
1#
01
1J
1M
1c
1U
1B
1.
1^
0]
0\
#104000
0#
11
0J
#106000
1#
01
1J
#108000
0#
11
0J
#110000
1#
01
1J
#112000
0#
11
0J
#114000
1#
01
1J
#116000
0#
11
0J
#118000
1#
01
1J
#120000
0%
0#
11
0K
0J
#122000
1#
01
1J
0M
#124000
0#
11
0J
#126000
1#
01
1J
#128000
0#
11
0J
#130000
0"
1#
01
0N
1J
0O
#132000
0#
11
0J
#134000
1#
01
1J
#136000
0#
11
0J
#138000
1#
01
1J
#140000
1%
0#
11
1K
0J
#142000
1#
01
1J
1M
1a
0b
0c
1V
0T
0A
1C
0/
1-
1\
#144000
0#
11
0J
#146000
1#
01
1J
#148000
0#
11
0J
#150000
1#
01
1J
#152000
0#
11
0J
#154000
1#
01
1J
#156000
0#
11
0J
#158000
1#
01
1J
#160000
0%
0#
11
0K
0J
#162000
1#
01
1J
0M
#164000
0#
11
0J
#166000
1#
01
1J
#168000
0#
11
0J
#170000
1"
1#
01
1N
1J
1O
#172000
0#
11
0J
#174000
1#
01
1J
#176000
0#
11
0J
#178000
1#
01
1J
#180000
1%
0#
11
1K
0J
#182000
1#
01
1J
1M
1c
1W
0U
1T
1A
0B
1D
1/
0.
1,
1]
0\
#184000
0#
11
0J
#186000
1#
01
1J
#188000
0#
11
0J
#190000
1#
01
1J
#192000
0#
11
0J
#194000
1#
01
1J
#196000
0#
11
0J
#198000
1#
01
1J
#200000
0%
0#
11
0K
0J
#202000
1#
01
1J
0M
#204000
0#
11
0J
#206000
1#
01
1J
#208000
0#
11
0J
#210000
0"
1#
01
0N
1J
0O
#212000
0#
11
0J
#214000
1#
01
1J
#216000
0#
11
0J
#218000
1#
01
1J
#220000
1%
0#
11
1K
0J
#222000
1#
01
1J
1M
1b
0c
1X
0V
1U
0T
0A
1B
0C
1E
0/
1.
0-
1+
1\
#224000
0#
11
0J
#226000
1#
01
1J
#228000
0#
11
0J
#230000
1#
01
1J
#232000
0#
11
0J
#234000
1#
01
1J
#236000
0#
11
0J
#238000
1#
01
1J
#240000
0%
0#
11
0K
0J
#242000
1#
01
1J
0M
#244000
0#
11
0J
#246000
1#
01
1J
#248000
0#
11
0J
#250000
1#
01
1J
#252000
0#
11
0J
#254000
1#
01
1J
#256000
0#
11
0J
#258000
1#
01
1J
#260000
1%
0#
11
1K
0J
#262000
1#
01
1J
1M
1c
1Y
0W
1V
0U
0B
1C
0D
1F
0.
1-
0,
1*
0^
0]
0\
#264000
0#
11
0J
#266000
1#
01
1J
#268000
0#
11
0J
#270000
1#
01
1J
#272000
0#
11
0J
#274000
1#
01
1J
#276000
0#
11
0J
#278000
1#
01
1J
#280000
0%
0#
11
0K
0J
#282000
1#
01
1J
0M
#284000
0#
11
0J
#286000
1#
01
1J
#288000
0#
11
0J
#290000
1#
01
1J
#292000
0#
11
0J
#294000
1#
01
1J
#296000
0#
11
0J
#298000
1#
01
1J
#300000
1%
0#
11
1K
0J
#302000
1#
01
1J
1M
0a
0b
0c
1Z
0X
1W
0V
0C
1D
0E
1G
0-
1,
0+
1)
1_
1\
#304000
0#
11
0J
#306000
1#
01
1J
#308000
0#
11
0J
#310000
1#
01
1J
#312000
0#
11
0J
#314000
1#
01
1J
#316000
0#
11
0J
#318000
1#
01
1J
#320000
1"
0%
0#
11
1N
0K
0J
#322000
1#
01
1J
1O
0M
1`
1I
10
#324000
0#
11
0J
#326000
1#
01
1J
#328000
0#
11
0J
#330000
1#
01
1J
#332000
0#
11
0J
#334000
1#
01
1J
#336000
0#
11
0J
#338000
1#
01
1J
#340000
1%
0#
11
1K
0J
#342000
1#
01
1J
1M
1c
1[
0Y
1X
0W
1T
1A
0D
1E
0F
1H
1/
0,
1+
0*
1(
0_
1]
0\
#344000
0#
11
0J
#346000
1#
01
1J
#348000
0#
11
0J
#350000
1#
01
1J
#352000
0#
11
0J
#354000
1#
01
1J
#356000
0#
11
0J
#358000
1#
01
1J
#360000
0%
0#
11
0K
0J
#362000
1#
01
1J
0M
0`
0I
00
#364000
0#
11
0J
#366000
1#
01
1J
#368000
0#
11
0J
#370000
1#
01
1J
#372000
0#
11
0J
#374000
1#
01
1J
#376000
0#
11
0J
#378000
1#
01
1J
#380000
1%
0#
11
1K
0J
#382000
1#
01
1J
1M
1b
0c
0Z
1Y
0X
1U
1B
0E
1F
0G
1.
0+
1*
0)
1\
#384000
0#
11
0J
#386000
1#
01
1J
#388000
0#
11
0J
#390000
0"
1#
01
0N
1J
0O
#392000
0#
11
0J
#394000
1#
01
1J
#396000
0#
11
0J
#398000
1#
01
1J
#400000
0%
0#
11
0K
0J
#402000
1#
01
1J
0M
#404000
0#
11
0J
#406000
1#
01
1J
#408000
0#
11
0J
#410000
1#
01
1J
#412000
0#
11
0J
#414000
1#
01
1J
#416000
0#
11
0J
#418000
1#
01
1J
#420000
1%
0#
11
1K
0J
#422000
1#
01
1J
1M
1c
0[
1Z
0Y
1V
0T
0A
1C
0F
1G
0H
0/
1-
0*
1)
0(
1^
0]
0\
#424000
0#
11
0J
#426000
1#
01
1J
#428000
0#
11
0J
#430000
1"
1#
01
1N
1J
1O
#432000
0#
11
0J
#434000
1#
01
1J
#436000
0#
11
0J
#438000
1#
01
1J
#440000
0%
0#
11
0K
0J
#442000
1#
01
1J
0M
#444000
0#
11
0J
#446000
1#
01
1J
#448000
0#
11
0J
#450000
1#
01
1J
#452000
0#
11
0J
#454000
1#
01
1J
#456000
0#
11
0J
#458000
1#
01
1J
#460000
1%
0#
11
1K
0J
#462000
1#
01
1J
1M
1a
0b
0c
1[
0Z
1W
0U
1T
1A
0B
1D
0G
1H
1/
0.
1,
0)
1(
1\
#464000
0#
11
0J
#466000
1#
01
1J
#468000
0#
11
0J
#470000
1#
01
1J
#472000
0#
11
0J
#474000
1#
01
1J
#476000
0#
11
0J
#478000
1#
01
1J
#480000
0%
0#
11
0K
0J
#482000
1#
01
1J
0M
#484000
0#
11
0J
#486000
1#
01
1J
#488000
0#
11
0J
#490000
1#
01
1J
#492000
0#
11
0J
#494000
1#
01
1J
#496000
0#
11
0J
#498000
1#
01
1J
#500000
1%
0#
11
1K
0J
#502000
1#
01
1J
1M
1c
0[
1X
0V
1U
1B
0C
1E
0H
1.
0-
1+
0(
1]
0\
#504000
0#
11
0J
#506000
1#
01
1J
#508000
0#
11
0J
#510000
1#
01
1J
#512000
0#
11
0J
#514000
1#
01
1J
#516000
0#
11
0J
#518000
1#
01
1J
#520000
0"
0%
0#
11
0N
0K
0J
#522000
1#
01
1J
0O
0M
#524000
0#
11
0J
#526000
1#
01
1J
#528000
0#
11
0J
#530000
1#
01
1J
#532000
0#
11
0J
#534000
1#
01
1J
#536000
0#
11
0J
#538000
1#
01
1J
#540000
1%
0#
11
1K
0J
#542000
1#
01
1J
1M
1b
0c
1Y
0W
1V
0T
0A
1C
0D
1F
0/
1-
0,
1*
1\
#544000
0#
11
0J
#546000
1#
01
1J
#548000
0#
11
0J
#550000
1#
01
1J
#552000
0#
11
0J
#554000
1#
01
1J
#556000
0#
11
0J
#558000
1#
01
1J
#560000
0%
0#
11
0K
0J
#562000
1#
01
1J
0M
#564000
0#
11
0J
#566000
1#
01
1J
#568000
0#
11
0J
#570000
1#
01
1J
#572000
0#
11
0J
#574000
1#
01
1J
#576000
0#
11
0J
#578000
1#
01
1J
#580000
1%
0#
11
1K
0J
#582000
1#
01
1J
1M
1c
1Z
0X
1W
0U
0B
1D
0E
1G
0.
1,
0+
1)
0^
0]
0\
#584000
0#
11
0J
#586000
1#
01
1J
#588000
0#
11
0J
#590000
1#
01
1J
#592000
0#
11
0J
#594000
1#
01
1J
#596000
0#
11
0J
#598000
1#
01
1J
#600000
0%
0#
11
0K
0J
#602000
1#
01
1J
0M
#604000
0#
11
0J
#606000
1#
01
1J
#608000
0#
11
0J
#610000
1#
01
1J
#612000
0#
11
0J
#614000
1#
01
1J
#616000
0#
11
0J
#618000
1#
01
1J
#620000
1%
0#
11
1K
0J
#622000
1#
01
1J
1M
0a
0b
0c
1[
0Y
1X
0V
0C
1E
0F
1H
0-
1+
0*
1(
1_
1\
#624000
0#
11
0J
#626000
1#
01
1J
#628000
0#
11
0J
#630000
1#
01
1J
#632000
0#
11
0J
#634000
1#
01
1J
#636000
0#
11
0J
#638000
1#
01
1J
#640000
0%
0#
11
0K
0J
#642000
1#
01
1J
0M
1`
1I
10
#644000
0#
11
0J
#646000
1#
01
1J
#648000
0#
11
0J
#650000
1!
1#
1P
01
1J
0Q
#652000
0#
11
0J
#654000
1#
01
1J
0R
1S
0W
0X
0Z
0[
0`
0I
0H
0G
0E
0D
00
0(
0)
0+
0,
#656000
0#
11
0J
#658000
1#
01
1J
#660000
1%
0#
11
1K
0J
#662000
1#
01
1J
1M
#664000
0#
11
0J
#666000
1#
01
1J
#668000
0#
11
0J
#670000
1#
01
1J
#672000
0#
11
0J
#674000
1#
01
1J
#676000
0#
11
0J
#678000
1#
01
1J
#680000
0%
0#
11
0K
0J
#682000
1#
01
1J
0M
#684000
0#
11
0J
#686000
1#
01
1J
#688000
0#
11
0J
#690000
1#
01
1J
#692000
0#
11
0J
#694000
1#
01
1J
#696000
0#
11
0J
#698000
1#
01
1J
#700000
1%
0#
11
1K
0J
#702000
1#
01
1J
1M
#704000
0#
11
0J
#706000
1#
01
1J
#708000
0#
11
0J
#710000
1#
01
1J
#712000
0#
11
0J
#714000
1#
01
1J
#716000
0#
11
0J
#718000
1#
01
1J
#720000
1"
0%
0#
11
1N
0K
0J
#722000
1#
01
1J
1O
0M
#724000
0#
11
0J
#726000
1#
01
1J
#728000
0#
11
0J
#730000
1#
01
1J
#732000
0#
11
0J
#734000
1#
01
1J
#736000
0#
11
0J
#738000
1#
01
1J
#740000
1%
0#
11
1K
0J
#742000
1#
01
1J
1M
#744000
0#
11
0J
#746000
1#
01
1J
#748000
0#
11
0J
#750000
1#
01
1J
#752000
0#
11
0J
#754000
1#
01
1J
#756000
0#
11
0J
#758000
1#
01
1J
#760000
0%
0#
11
0K
0J
#762000
1#
01
1J
0M
#764000
0#
11
0J
#766000
1#
01
1J
#768000
0#
11
0J
#770000
1#
01
1J
#772000
0#
11
0J
#774000
1#
01
1J
#776000
0#
11
0J
#778000
1#
01
1J
#780000
0"
1%
0#
11
0N
1K
0J
#782000
1#
01
1J
0O
1M
#784000
0#
11
0J
#786000
1#
01
1J
#788000
0#
11
0J
#790000
1#
01
1J
#792000
0#
11
0J
#794000
1#
01
1J
#796000
0#
11
0J
#798000
1#
01
1J
#800000
0%
0#
11
0K
0J
#802000
1#
01
1J
0M
#804000
0#
11
0J
#806000
1#
01
1J
#808000
0#
11
0J
#810000
1#
01
1J
#812000
0#
11
0J
#814000
1#
01
1J
#816000
0#
11
0J
#818000
1#
01
1J
#820000
1%
0#
11
1K
0J
#822000
1#
01
1J
1M
#824000
0#
11
0J
#826000
1#
01
1J
#828000
0#
11
0J
#830000
1#
01
1J
#832000
0#
11
0J
#834000
1#
01
1J
#836000
0#
11
0J
#838000
1#
01
1J
#840000
0%
0#
11
0K
0J
#842000
1#
01
1J
0M
#844000
0#
11
0J
#846000
1#
01
1J
#848000
0#
11
0J
#850000
1#
01
1J
#852000
0#
11
0J
#854000
1#
01
1J
#856000
0#
11
0J
#858000
1#
01
1J
#860000
1%
0#
11
1K
0J
#862000
1#
01
1J
1M
#864000
0#
11
0J
#866000
1#
01
1J
#868000
0#
11
0J
#870000
1#
01
1J
#872000
0#
11
0J
#874000
1#
01
1J
#876000
0#
11
0J
#878000
1#
01
1J
#880000
0%
0#
11
0K
0J
#882000
1#
01
1J
0M
#884000
0#
11
0J
#886000
1#
01
1J
#888000
0#
11
0J
#890000
1#
01
1J
#892000
0#
11
0J
#894000
1#
01
1J
#896000
0#
11
0J
#898000
1#
01
1J
#900000
1%
0#
11
1K
0J
#902000
1#
01
1J
1M
#904000
0#
11
0J
#906000
1#
01
1J
#908000
0#
11
0J
#910000
1#
01
1J
#912000
0#
11
0J
#914000
1#
01
1J
#916000
0#
11
0J
#918000
1#
01
1J
#920000
0%
0#
11
0K
0J
#922000
1#
01
1J
0M
#924000
0#
11
0J
#926000
1#
01
1J
#928000
0#
11
0J
#930000
1#
01
1J
#932000
0#
11
0J
#934000
1#
01
1J
#936000
0#
11
0J
#938000
1#
01
1J
#940000
1%
0#
11
1K
0J
#942000
1#
01
1J
1M
#944000
0#
11
0J
#946000
1#
01
1J
#948000
0#
11
0J
#950000
1#
01
1J
#952000
0#
11
0J
#954000
1#
01
1J
#956000
0#
11
0J
#958000
1#
01
1J
#960000
0%
0#
11
0K
0J
#962000
1#
01
1J
0M
#964000
0#
11
0J
#966000
1#
01
1J
#968000
0#
11
0J
#970000
0!
1#
0P
01
1J
1Q
#972000
0#
11
0J
#974000
1#
01
1J
1R
0S
#976000
0#
11
0J
#978000
1#
01
1J
#980000
1%
0#
11
1K
0J
#982000
1#
01
1J
1M
1c
0_
1]
0\
#984000
0#
11
0J
#986000
1#
01
1J
#988000
0#
11
0J
#990000
1#
01
1J
#992000
0#
11
0J
#994000
1#
01
1J
#996000
0#
11
0J
#998000
1#
01
1J
